#FIG 3.2  Produced by xfig version 3.2.5b
Landscape
Center
Metric
A4      
100.00
Single
-2
1200 2
2 2 0 2 0 7 50 -1 -1 0.000 0 0 -1 0 0 5
	 0 1125 900 1125 900 1575 0 1575 0 1125
2 2 0 2 0 7 50 -1 -1 0.000 0 0 -1 0 0 5
	 900 1125 1800 1125 1800 1575 900 1575 900 1125
2 2 0 2 0 7 50 -1 -1 0.000 0 0 -1 0 0 5
	 1800 1125 2700 1125 2700 1575 1800 1575 1800 1125
2 2 0 2 0 7 50 -1 -1 0.000 0 0 -1 0 0 5
	 3600 1125 4500 1125 4500 1575 3600 1575 3600 1125
2 2 0 2 0 7 50 -1 -1 0.000 0 0 -1 0 0 5
	 4500 1125 5400 1125 5400 1575 4500 1575 4500 1125
2 2 0 2 0 7 50 -1 -1 0.000 0 0 -1 0 0 5
	 5400 1125 6300 1125 6300 1575 5400 1575 5400 1125
2 2 0 2 0 7 50 -1 -1 0.000 0 0 -1 0 0 5
	 7200 1125 8100 1125 8100 1575 7200 1575 7200 1125
2 2 0 2 0 7 50 -1 -1 0.000 0 0 -1 0 0 5
	 9000 1125 9900 1125 9900 1575 9000 1575 9000 1125
2 2 0 2 0 7 50 -1 -1 0.000 0 0 -1 0 0 5
	 6300 1125 7200 1125 7200 1575 6300 1575 6300 1125
2 2 0 2 0 7 50 -1 -1 0.000 0 0 -1 0 0 5
	 2700 1125 3600 1125 3600 1575 2700 1575 2700 1125
2 2 0 2 0 7 50 -1 -1 0.000 0 0 -1 0 0 5
	 8100 1125 9000 1125 9000 1575 8100 1575 8100 1125
4 0 0 50 -1 0 18 0.0000 4 195 135 360 990 0\001
4 0 0 50 -1 0 18 0.0000 4 195 135 1305 990 1\001
4 0 0 50 -1 0 18 0.0000 4 195 135 2205 990 2\001
4 0 0 50 -1 0 18 0.0000 4 195 135 3105 990 3\001
4 0 0 50 -1 0 18 0.0000 4 195 135 4005 990 4\001
4 0 0 50 -1 0 18 0.0000 4 195 135 4905 990 5\001
4 0 0 50 -1 0 18 0.0000 4 195 135 5805 990 6\001
4 0 0 50 -1 0 18 0.0000 4 195 135 6705 990 7\001
4 0 0 50 -1 0 18 0.0000 4 195 135 7605 990 8\001
4 0 0 50 -1 0 18 0.0000 4 195 135 8505 990 9\001
4 0 0 50 -1 0 18 0.0000 4 195 270 9315 990 10\001
4 0 0 50 -1 0 18 0.0000 4 195 225 9315 1890 -1\001
4 0 0 50 -1 0 18 0.0000 4 195 225 8460 1890 -2\001
4 0 0 50 -1 0 18 0.0000 4 195 225 7560 1890 -3\001
4 0 0 50 -1 0 18 0.0000 4 195 225 6660 1890 -4\001
4 0 0 50 -1 0 18 0.0000 4 195 225 5760 1890 -5\001
4 0 0 50 -1 0 18 0.0000 4 195 225 4860 1890 -6\001
4 0 0 50 -1 0 18 0.0000 4 195 225 3960 1890 -7\001
4 0 0 50 -1 0 18 0.0000 4 195 225 3060 1890 -8\001
4 0 0 50 -1 0 18 0.0000 4 195 225 2160 1890 -9\001
4 0 0 50 -1 0 18 0.0000 4 195 360 270 1890 -11\001
4 0 0 50 -1 0 18 0.0000 4 195 360 1170 1890 -10\001
4 0 0 50 -1 0 18 0.0000 4 195 1590 -1800 990 Positive index\001
4 0 0 50 -1 0 18 0.0000 4 255 1710 -1890 1890 Negative index\001
4 0 0 50 -1 0 18 0.0000 4 195 465 225 1440 first\001
4 0 0 50 -1 0 18 0.0000 4 195 405 9225 1440 last\001
